<?xml version="1.0" encoding="UTF-8" standalone="no"?>
<!-- Created with Inkscape (http://www.inkscape.org/) -->

<svg
   xmlns:dc="http://purl.org/dc/elements/1.1/"
   xmlns:cc="http://creativecommons.org/ns#"
   xmlns:rdf="http://www.w3.org/1999/02/22-rdf-syntax-ns#"
   xmlns:svg="http://www.w3.org/2000/svg"
   xmlns="http://www.w3.org/2000/svg"
   xmlns:sodipodi="http://sodipodi.sourceforge.net/DTD/sodipodi-0.dtd"
   xmlns:inkscape="http://www.inkscape.org/namespaces/inkscape"
   width="8"
   height="8"
   viewBox="0 0 2.1166666 2.1166667"
   version="1.1"
   id="svg840"
   inkscape:version="0.92.4 (unknown)"
   sodipodi:docname="WE1.svg">
  <defs
     id="defs834" />
  <sodipodi:namedview
     id="base"
     pagecolor="#ffffff"
     bordercolor="#666666"
     borderopacity="1.0"
     inkscape:pageopacity="0.0"
     inkscape:pageshadow="2"
     inkscape:zoom="90.509668"
     inkscape:cx="6.127884"
     inkscape:cy="3.2712547"
     inkscape:document-units="px"
     inkscape:current-layer="layer1-10"
     showgrid="true"
     units="px"
     inkscape:window-width="1920"
     inkscape:window-height="1051"
     inkscape:window-x="0"
     inkscape:window-y="0"
     inkscape:window-maximized="1"
     showguides="false">
    <inkscape:grid
       type="xygrid"
       id="grid955"
       spacingx="0.13229167"
       spacingy="0.13229167" />
  </sodipodi:namedview>
  <metadata
     id="metadata837">
    <rdf:RDF>
      <cc:Work
         rdf:about="">
        <dc:format>image/svg+xml</dc:format>
        <dc:type
           rdf:resource="http://purl.org/dc/dcmitype/StillImage" />
        <dc:title></dc:title>
      </cc:Work>
    </rdf:RDF>
  </metadata>
  <g
     inkscape:label="Vrstva 1"
     inkscape:groupmode="layer"
     id="layer1"
     transform="translate(0,-294.88332)">
    <g
       inkscape:label="Background"
       id="layer1-7"
       transform="translate(-0.02891022,1.1158387)">
      <path
         inkscape:label="Background"
         sodipodi:nodetypes="ccccc"
         inkscape:connector-curvature="0"
         d="m 0.02891022,293.76748 v 2.11667 h 0.92604169 v -2.11667 z"
         id="path815"
         style="fill:#4b97ce;fill-opacity:1;stroke:none;stroke-width:0.06019084;stroke-linecap:round;stroke-linejoin:round;stroke-miterlimit:4;stroke-dasharray:none;stroke-opacity:1" />
      <path
         inkscape:label="Straight"
         style="display:inline;fill:none;fill-rule:evenodd;stroke:#2c6fa0;stroke-width:0.26458332;stroke-linecap:butt;stroke-linejoin:miter;stroke-miterlimit:4;stroke-dasharray:none;stroke-opacity:1"
         d="m 0.95495191,293.76748 v 2.11666"
         id="path1885-0-9-4-2-2-5"
         inkscape:connector-curvature="0"
         sodipodi:nodetypes="cc" />
      <path
         inkscape:label="Outer"
         style="display:none;fill:none;fill-rule:evenodd;stroke:#2c6fa0;stroke-width:0.26458332;stroke-linecap:butt;stroke-linejoin:miter;stroke-miterlimit:4;stroke-dasharray:none;stroke-opacity:1"
         d="m 1.2195352,293.76748 c 0,0.66146 -0.52916658,1.19062 -1.19062498,1.19063"
         id="path1885-0"
         inkscape:connector-curvature="0"
         sodipodi:nodetypes="cc" />
      <path
         inkscape:label="Inner"
         style="display:none;fill:none;fill-rule:evenodd;stroke:#2c6fa0;stroke-width:0.26458332;stroke-linecap:butt;stroke-linejoin:miter;stroke-miterlimit:4;stroke-dasharray:none;stroke-opacity:1"
         d="m 0.95495191,293.76748 c 2e-8,0.52917 -0.39687499,0.92604 -0.92604167,0.92604"
         id="path1885"
         inkscape:connector-curvature="0"
         sodipodi:nodetypes="cc" />
    </g>
    <g
       transform="translate(4.9401972,5.1391937)"
       id="layer1-10"
       inkscape:label="Addons"
       style="display:none"
       inkscape:groupmode="layer">
      <path
         sodipodi:nodetypes="cc"
         inkscape:connector-curvature="0"
         id="path1784"
         d="m -3.434964,291.10393 c 0.495863,0.32926 0.841508,-0.29615 1.2728918,0.0954"
         style="display:inline;fill:none;fill-opacity:1;fill-rule:evenodd;stroke:#4900e5;stroke-width:0.13229167;stroke-linecap:round;stroke-linejoin:round;stroke-miterlimit:4;stroke-dasharray:none;stroke-opacity:0.32336958"
         inkscape:label="wave3" />
      <path
         sodipodi:nodetypes="cc"
         inkscape:connector-curvature="0"
         id="path1784-6"
         d="m -3.4198463,290.71497 c 0.4563597,-0.31762 0.7561066,0.23993 1.2577741,-0.0448"
         style="display:inline;fill:none;fill-opacity:1;fill-rule:evenodd;stroke:#4900e5;stroke-width:0.13229169;stroke-linecap:round;stroke-linejoin:round;stroke-miterlimit:4;stroke-dasharray:none;stroke-opacity:0.32336958"
         inkscape:label="wave2" />
      <path
         sodipodi:nodetypes="cc"
         inkscape:connector-curvature="0"
         id="path1784-8"
         d="m -3.3886075,290.1019 c 0.4364204,0.34496 0.7626307,-0.30246 1.2265353,0.0391"
         style="display:inline;fill:none;fill-opacity:1;fill-rule:evenodd;stroke:#4900e5;stroke-width:0.13229169;stroke-linecap:round;stroke-linejoin:round;stroke-miterlimit:4;stroke-dasharray:none;stroke-opacity:0.32336958"
         inkscape:label="wave1" />
    </g>
  </g>
</svg>
